<?xml version="1.0" encoding="UTF-8" standalone="no"?>
<!-- Created with Inkscape (http://www.inkscape.org/) -->

<svg
   xmlns:dc="http://purl.org/dc/elements/1.1/"
   xmlns:cc="http://creativecommons.org/ns#"
   xmlns:rdf="http://www.w3.org/1999/02/22-rdf-syntax-ns#"
   xmlns:svg="http://www.w3.org/2000/svg"
   xmlns="http://www.w3.org/2000/svg"
   xmlns:sodipodi="http://sodipodi.sourceforge.net/DTD/sodipodi-0.dtd"
   xmlns:inkscape="http://www.inkscape.org/namespaces/inkscape"
   width="210mm"
   height="297mm"
   viewBox="0 0 210 297"
   version="1.1"
   id="svg8"
   inkscape:version="0.92.4 (5da689c313, 2019-01-14)"
   sodipodi:docname="sklavenVertrag2019-font.svg"
   inkscape:export-filename="/home/marc/Daten.2019/code/HackersCardgame5/TODO/sklavenVertrag2019-font.svg.png"
   inkscape:export-xdpi="363.92001"
   inkscape:export-ydpi="363.92001">
  <defs
     id="defs2" />
  <sodipodi:namedview
     id="base"
     pagecolor="#ffffff"
     bordercolor="#666666"
     borderopacity="1.0"
     inkscape:pageopacity="0.0"
     inkscape:pageshadow="2"
     inkscape:zoom="1.0393815"
     inkscape:cx="113.62063"
     inkscape:cy="729.06646"
     inkscape:document-units="mm"
     inkscape:current-layer="g383"
     showgrid="false"
     inkscape:window-width="1920"
     inkscape:window-height="1016"
     inkscape:window-x="0"
     inkscape:window-y="27"
     inkscape:window-maximized="1" />
  <metadata
     id="metadata5">
    <rdf:RDF>
      <cc:Work
         rdf:about="">
        <dc:format>image/svg+xml</dc:format>
        <dc:type
           rdf:resource="http://purl.org/dc/dcmitype/StillImage" />
        <dc:title></dc:title>
      </cc:Work>
    </rdf:RDF>
  </metadata>
  <g
     inkscape:label="Layer 1"
     inkscape:groupmode="layer"
     id="layer1">
    <g
       id="g383"
       transform="translate(12.170831,4.7625002)">
      <text
         id="text12"
         y="12.874517"
         x="95.77951"
         style="font-style:normal;font-weight:normal;font-size:3.52777767px;line-height:1.25;font-family:sans-serif;letter-spacing:0px;word-spacing:0px;fill:#000000;fill-opacity:1;stroke:none;stroke-width:0.26458332"
         xml:space="preserve"><tspan
           id="tspan3444"
           style="font-style:normal;font-variant:normal;font-weight:normal;font-stretch:normal;font-family:slave;-inkscape-font-specification:slave;text-align:center;text-anchor:middle;stroke-width:0.26458332"
           y="12.874517"
           x="95.77951"
           sodipodi:role="line">Ich         im Vollbesitz  meiner geistigen Kräfte wünsche</tspan><tspan
           id="tspan1706"
           style="font-style:normal;font-variant:normal;font-weight:normal;font-stretch:normal;font-family:slave;-inkscape-font-specification:slave;text-align:center;text-anchor:middle;stroke-width:0.26458332"
           y="17.426178"
           x="96.926727"
           sodipodi:role="line">mir          persönlicher, einziger Sklave zu sein. </tspan><tspan
           id="tspan1842"
           style="font-style:normal;font-variant:normal;font-weight:normal;font-stretch:normal;font-family:slave;-inkscape-font-specification:slave;text-align:center;text-anchor:middle;stroke-width:0.26458332"
           y="21.977837"
           x="95.77951"
           sodipodi:role="line">Inklusive BDSM (Autist)</tspan><tspan
           id="tspan1710"
           style="font-style:normal;font-variant:normal;font-weight:normal;font-stretch:normal;font-family:slave;-inkscape-font-specification:slave;text-align:center;text-anchor:middle;stroke-width:0.26458332"
           y="26.529497"
           x="96.926735"
           sodipodi:role="line">alles erlaubt was keine permanenten Schäden verursacht </tspan><tspan
           id="tspan1832"
           style="font-style:normal;font-variant:normal;font-weight:normal;font-stretch:normal;font-family:slave;-inkscape-font-specification:slave;text-align:center;text-anchor:middle;stroke-width:0.26458332"
           y="31.081158"
           x="95.77951"
           sodipodi:role="line">und die <tspan
   id="tspan2184"
   style="fill:#0000ff">wissenschaftlichen Erkenntnisse</tspan> dürfen von ihr</tspan><tspan
           id="tspan1836"
           style="font-style:normal;font-variant:normal;font-weight:normal;font-stretch:normal;font-family:slave;-inkscape-font-specification:slave;text-align:center;text-anchor:middle;stroke-width:0.26458332"
           y="35.632816"
           x="95.77951"
           sodipodi:role="line">veröffentlicht werden.</tspan><tspan
           id="tspan1714"
           style="font-style:normal;font-variant:normal;font-weight:normal;font-stretch:normal;font-family:slave;-inkscape-font-specification:slave;text-align:center;text-anchor:middle;stroke-width:0.26458332"
           y="40.042542"
           x="95.77951"
           sodipodi:role="line" /><tspan
           id="tspan1716"
           style="font-style:normal;font-variant:normal;font-weight:normal;font-stretch:normal;font-family:slave;-inkscape-font-specification:slave;text-align:center;text-anchor:middle;stroke-width:0.26458332"
           y="44.5942"
           x="95.77951"
           sodipodi:role="line">Ich mag es auch zwischendurch zu weinen</tspan><tspan
           id="tspan1718"
           style="font-style:normal;font-variant:normal;font-weight:normal;font-stretch:normal;font-family:slave;-inkscape-font-specification:slave;text-align:center;text-anchor:middle;stroke-width:0.26458332"
           y="49.145859"
           x="95.77951"
           sodipodi:role="line">aber nicht wegen Gewalt sondern...</tspan><tspan
           id="tspan1720"
           style="font-style:normal;font-variant:normal;font-weight:normal;font-stretch:normal;font-family:slave;-inkscape-font-specification:slave;text-align:center;text-anchor:middle;stroke-width:0.26458332"
           y="53.55558"
           x="95.77951"
           sodipodi:role="line" /><tspan
           id="tspan1722"
           style="font-style:normal;font-variant:normal;font-weight:normal;font-stretch:normal;font-family:slave;-inkscape-font-specification:slave;text-align:center;text-anchor:middle;stroke-width:0.26458332"
           y="58.107243"
           x="95.77951"
           sodipodi:role="line">Kleine dürfen mich auch schalgen unter</tspan><tspan
           id="tspan1724"
           style="font-style:normal;font-variant:normal;font-weight:normal;font-stretch:normal;font-family:slave;-inkscape-font-specification:slave;text-align:center;text-anchor:middle;stroke-width:0.26458332"
           y="62.658901"
           x="95.77951"
           sodipodi:role="line">Aufsicht von ihr, insbesondere wenn es hilft</tspan><tspan
           id="tspan1726"
           style="font-style:normal;font-variant:normal;font-weight:normal;font-stretch:normal;font-family:slave;-inkscape-font-specification:slave;text-align:center;text-anchor:middle;stroke-width:0.26458332"
           y="67.210564"
           x="95.77951"
           sodipodi:role="line">raumata zu verarbeiten z.B. generalisierten</tspan><tspan
           id="tspan1728"
           style="font-style:normal;font-variant:normal;font-weight:normal;font-stretch:normal;font-family:slave;-inkscape-font-specification:slave;text-align:center;text-anchor:middle;stroke-width:0.26458332"
           y="71.762222"
           x="95.77951"
           sodipodi:role="line">        zu beheben und weil ich es</tspan><tspan
           id="tspan1730"
           style="font-style:normal;font-variant:normal;font-weight:normal;font-stretch:normal;font-family:slave;-inkscape-font-specification:slave;text-align:center;text-anchor:middle;stroke-width:0.26458332"
           y="76.313881"
           x="95.77951"
           sodipodi:role="line">ja genehmige würden sie nicht selber</tspan><tspan
           id="tspan1732"
           style="font-style:normal;font-variant:normal;font-weight:normal;font-stretch:normal;font-family:slave;-inkscape-font-specification:slave;text-align:center;text-anchor:middle;stroke-width:0.26458332"
           y="80.86554"
           x="95.77951"
           sodipodi:role="line">zu[m|r] Täter(in) werden zu müssen oder</tspan><tspan
           id="tspan1734"
           style="font-style:normal;font-variant:normal;font-weight:normal;font-stretch:normal;font-family:slave;-inkscape-font-specification:slave;text-align:center;text-anchor:middle;stroke-width:0.26458332"
           y="85.417198"
           x="95.77951"
           sodipodi:role="line">gegen richtige Gewalttäter antreten.</tspan><tspan
           id="tspan1736"
           style="font-style:normal;font-variant:normal;font-weight:normal;font-stretch:normal;font-family:slave;-inkscape-font-specification:slave;text-align:center;text-anchor:middle;stroke-width:0.26458332"
           y="89.968864"
           x="95.77951"
           sodipodi:role="line">(Splitbrain -&gt; Gewissen -&gt; Seele kaputt -&gt;</tspan><tspan
           id="tspan1738"
           style="font-style:normal;font-variant:normal;font-weight:normal;font-stretch:normal;font-family:slave;-inkscape-font-specification:slave;text-align:center;text-anchor:middle;stroke-width:0.26458332"
           y="94.520523"
           x="95.77951"
           sodipodi:role="line">fremdbestimmbar -&gt; mehr Probleme)</tspan><tspan
           id="tspan1740"
           style="font-style:normal;font-variant:normal;font-weight:normal;font-stretch:normal;font-family:slave;-inkscape-font-specification:slave;text-align:center;text-anchor:middle;stroke-width:0.26458332"
           y="98.930244"
           x="95.77951"
           sodipodi:role="line" /><tspan
           id="tspan1742"
           style="font-style:normal;font-variant:normal;font-weight:normal;font-stretch:normal;font-family:slave;-inkscape-font-specification:slave;text-align:center;text-anchor:middle;stroke-width:0.26458332"
           y="103.4819"
           x="95.77951"
           sodipodi:role="line">Dies werde ich weder anprangern noch</tspan><tspan
           id="tspan1744"
           style="font-style:normal;font-variant:normal;font-weight:normal;font-stretch:normal;font-family:slave;-inkscape-font-specification:slave;text-align:center;text-anchor:middle;stroke-width:0.26458332"
           y="108.03356"
           x="95.77951"
           sodipodi:role="line">zurückfordern, aber ich lasse mich nicht besteigen</tspan><tspan
           id="tspan1748"
           style="font-style:normal;font-variant:normal;font-weight:normal;font-stretch:normal;font-family:slave;-inkscape-font-specification:slave;text-align:center;text-anchor:middle;stroke-width:0.26458332"
           y="112.58522"
           x="95.77951"
           sodipodi:role="line">ausser von ihr. Mögen die Kleinen auch eine</tspan><tspan
           id="tspan1752"
           style="font-style:normal;font-variant:normal;font-weight:normal;font-stretch:normal;font-family:slave;-inkscape-font-specification:slave;text-align:center;text-anchor:middle;stroke-width:0.26458332"
           y="117.13689"
           x="95.77951"
           sodipodi:role="line">Funkton (Knopf) haben, um mich auszusperren</tspan><tspan
           id="tspan1754"
           style="font-style:normal;font-variant:normal;font-weight:normal;font-stretch:normal;font-family:slave;-inkscape-font-specification:slave;text-align:center;text-anchor:middle;stroke-width:0.26458332"
           y="121.68855"
           x="95.77951"
           sodipodi:role="line">(Privacy) oder um mich falls ich helfen</tspan><tspan
           id="tspan1756"
           style="font-style:normal;font-variant:normal;font-weight:normal;font-stretch:normal;font-family:slave;-inkscape-font-specification:slave;text-align:center;text-anchor:middle;stroke-width:0.26458332"
           y="126.2402"
           x="95.77951"
           sodipodi:role="line">kann dazu zu zwingen zu helfen.</tspan><tspan
           id="tspan1764"
           style="font-style:normal;font-variant:normal;font-weight:normal;font-stretch:normal;font-family:slave;-inkscape-font-specification:slave;text-align:center;text-anchor:middle;stroke-width:0.26458332"
           y="130.64993"
           x="95.77951"
           sodipodi:role="line" /><tspan
           id="tspan1768"
           style="font-style:normal;font-variant:normal;font-weight:normal;font-stretch:normal;font-family:slave;-inkscape-font-specification:slave;text-align:center;text-anchor:middle;stroke-width:0.26458332"
           y="135.20158"
           x="95.77951"
           sodipodi:role="line">Auch wünsche ich von ihr für falsche Fehle<tspan
   id="tspan2176"
   style="fill:#ff0000">e</tspan>r</tspan><tspan
           id="tspan1770"
           style="font-style:normal;font-variant:normal;font-weight:normal;font-stretch:normal;font-family:slave;-inkscape-font-specification:slave;text-align:center;text-anchor:middle;stroke-width:0.26458332"
           y="139.75325"
           x="95.77951"
           sodipodi:role="line">gezüchtigt zu werden um nicht selber</tspan><tspan
           id="tspan1772"
           style="font-style:normal;font-variant:normal;font-weight:normal;font-stretch:normal;font-family:slave;-inkscape-font-specification:slave;text-align:center;text-anchor:middle;stroke-width:0.26458332"
           y="144.3049"
           x="95.77951"
           sodipodi:role="line">Täter zu werden.</tspan><tspan
           id="tspan1774"
           style="font-style:normal;font-variant:normal;font-weight:normal;font-stretch:normal;font-family:slave;-inkscape-font-specification:slave;text-align:center;text-anchor:middle;stroke-width:0.26458332"
           y="148.71463"
           x="95.77951"
           sodipodi:role="line" /><tspan
           id="tspan1776"
           style="font-style:normal;font-variant:normal;font-weight:normal;font-stretch:normal;font-family:slave;-inkscape-font-specification:slave;text-align:center;text-anchor:middle;stroke-width:0.26458332"
           y="153.26628"
           x="95.77951"
           sodipodi:role="line">Ich mag keine viel älteren Leute als ich</tspan><tspan
           id="tspan1778"
           style="font-style:normal;font-variant:normal;font-weight:normal;font-stretch:normal;font-family:slave;-inkscape-font-specification:slave;text-align:center;text-anchor:middle;stroke-width:0.26458332"
           y="157.81795"
           x="95.77951"
           sodipodi:role="line">und schon gar keine triebgesteuerten</tspan><tspan
           id="tspan1780"
           style="font-style:normal;font-variant:normal;font-weight:normal;font-stretch:normal;font-family:slave;-inkscape-font-specification:slave;text-align:center;text-anchor:middle;stroke-width:0.26458332"
           y="162.36961"
           x="95.77951"
           sodipodi:role="line">Pädos wo man auf 1km schon von deren</tspan><tspan
           id="tspan1782"
           style="font-style:normal;font-variant:normal;font-weight:normal;font-stretch:normal;font-family:slave;-inkscape-font-specification:slave;text-align:center;text-anchor:middle;stroke-width:0.26458332"
           y="166.92126"
           x="95.77951"
           sodipodi:role="line">Glupschen bedrängt wird.</tspan><tspan
           id="tspan1784"
           style="font-style:normal;font-variant:normal;font-weight:normal;font-stretch:normal;font-family:slave;-inkscape-font-specification:slave;text-align:center;text-anchor:middle;stroke-width:0.26458332"
           y="171.33099"
           x="95.77951"
           sodipodi:role="line" /><tspan
           id="tspan1786"
           style="font-style:normal;font-variant:normal;font-weight:normal;font-stretch:normal;font-family:slave;-inkscape-font-specification:slave;text-align:center;text-anchor:middle;stroke-width:0.26458332"
           y="175.88264"
           x="95.77951"
           sodipodi:role="line">Weiter behaupte ich Aquila kann mir nicht so viele</tspan><tspan
           id="tspan1788"
           style="font-style:normal;font-variant:normal;font-weight:normal;font-stretch:normal;font-family:slave;-inkscape-font-specification:slave;text-align:center;text-anchor:middle;stroke-width:0.26458332"
           y="180.43431"
           x="95.77951"
           sodipodi:role="line">körperliche Schmerzen zufügen, dass ich sie nicht mehr</tspan><tspan
           id="tspan1790"
           style="font-style:normal;font-variant:normal;font-weight:normal;font-stretch:normal;font-family:slave;-inkscape-font-specification:slave;text-align:center;text-anchor:middle;stroke-width:0.26458332"
           y="184.98598"
           x="95.77951"
           sodipodi:role="line">liebe, deshalb möchte ich auch kein Stop-Wort</tspan><tspan
           id="tspan1792"
           style="font-style:normal;font-variant:normal;font-weight:normal;font-stretch:normal;font-family:slave;-inkscape-font-specification:slave;text-align:center;text-anchor:middle;stroke-width:0.26458332"
           y="189.53763"
           x="95.77951"
           sodipodi:role="line">haben, falls ich doch aufgeben würde müsste</tspan><tspan
           id="tspan1794"
           style="font-style:normal;font-variant:normal;font-weight:normal;font-stretch:normal;font-family:slave;-inkscape-font-specification:slave;text-align:center;text-anchor:middle;stroke-width:0.26458332"
           y="194.08929"
           x="95.77951"
           sodipodi:role="line">sie mich zwigen die Übung fertig zu machen, auch</tspan><tspan
           id="tspan1796"
           style="font-style:normal;font-variant:normal;font-weight:normal;font-stretch:normal;font-family:slave;-inkscape-font-specification:slave;text-align:center;text-anchor:middle;stroke-width:0.26458332"
           y="198.64095"
           x="95.77951"
           sodipodi:role="line">wenn sie mich fesseln müsste und einen</tspan><tspan
           id="tspan1798"
           style="font-style:normal;font-variant:normal;font-weight:normal;font-stretch:normal;font-family:slave;-inkscape-font-specification:slave;text-align:center;text-anchor:middle;stroke-width:0.26458332"
           y="203.19261"
           x="95.77951"
           sodipodi:role="line">Maulkorb verpassen muss. Ich fände es auch Betrug</tspan><tspan
           id="tspan1800"
           style="font-style:normal;font-variant:normal;font-weight:normal;font-stretch:normal;font-family:slave;-inkscape-font-specification:slave;text-align:center;text-anchor:middle;stroke-width:0.26458332"
           y="207.74428"
           x="95.77951"
           sodipodi:role="line">die Übungen unter ICD10-f44.x zu erledigen, würde es</tspan><tspan
           id="tspan1802"
           style="font-style:normal;font-variant:normal;font-weight:normal;font-stretch:normal;font-family:slave;-inkscape-font-specification:slave;text-align:center;text-anchor:middle;stroke-width:0.26458332"
           y="212.29593"
           x="95.77951"
           sodipodi:role="line">aber tolerieren, wenn es keine alternative gibt um</tspan><tspan
           id="tspan1804"
           style="font-style:normal;font-variant:normal;font-weight:normal;font-stretch:normal;font-family:slave;-inkscape-font-specification:slave;text-align:center;text-anchor:middle;stroke-width:0.26458332"
           y="216.8476"
           x="95.77951"
           sodipodi:role="line">z.B. die Liebe und Treue aufrecht zu erhalten, und</tspan><tspan
           id="tspan1806"
           style="font-style:normal;font-variant:normal;font-weight:normal;font-stretch:normal;font-family:slave;-inkscape-font-specification:slave;text-align:center;text-anchor:middle;stroke-width:0.26458332"
           y="221.39925"
           x="95.77951"
           sodipodi:role="line">ich beichte auch, dass es mich nicht nur wissenschaftlich</tspan><tspan
           id="tspan1808"
           style="font-style:normal;font-variant:normal;font-weight:normal;font-stretch:normal;font-family:slave;-inkscape-font-specification:slave;text-align:center;text-anchor:middle;stroke-width:0.26458332"
           y="225.95091"
           x="95.77951"
           sodipodi:role="line">interssiert, aber z.B. die <tspan
   id="tspan2188"
   style="fill:#008000">t37 Karte</tspan> des <tspan
   id="tspan2186"
   style="fill:#008000">HackersCardgame</tspan></tspan><tspan
           id="tspan1810"
           style="font-style:normal;font-variant:normal;font-weight:normal;font-stretch:normal;font-family:slave;-inkscape-font-specification:slave;text-align:center;text-anchor:middle;stroke-width:0.26458332"
           y="230.50256"
           x="95.77951"
           sodipodi:role="line">kaputt zu machen wäre schon eine spannende Herausforderung.</tspan><tspan
           id="tspan1812"
           style="font-style:normal;font-variant:normal;font-weight:normal;font-stretch:normal;font-family:slave;-inkscape-font-specification:slave;text-align:center;text-anchor:middle;stroke-width:0.26458332"
           y="234.91229"
           x="95.77951"
           sodipodi:role="line" /><tspan
           id="tspan1814"
           style="font-style:normal;font-variant:normal;font-weight:normal;font-stretch:normal;font-family:slave;-inkscape-font-specification:slave;text-align:center;text-anchor:middle;stroke-width:0.26458332"
           y="239.46396"
           x="95.77951"
           sodipodi:role="line">Es ist IMHO auch immer besser (oder Alternativlos)</tspan><tspan
           id="tspan1816"
           style="font-style:normal;font-variant:normal;font-weight:normal;font-stretch:normal;font-family:slave;-inkscape-font-specification:slave;text-align:center;text-anchor:middle;stroke-width:0.26458332"
           y="244.01561"
           x="95.77951"
           sodipodi:role="line">wenn das Männchen der Sklave ist, denn sonst würden</tspan><tspan
           id="tspan1818"
           style="font-style:normal;font-variant:normal;font-weight:normal;font-stretch:normal;font-family:slave;-inkscape-font-specification:slave;text-align:center;text-anchor:middle;stroke-width:0.26458332"
           y="248.56728"
           x="95.77951"
           sodipodi:role="line">alle das Männchen als Vergewalitger bezeichnen.</tspan><tspan
           id="tspan2178"
           style="font-style:normal;font-variant:normal;font-weight:normal;font-stretch:normal;font-family:slave;-inkscape-font-specification:slave;text-align:center;text-anchor:middle;stroke-width:0.26458332"
           y="252.97699"
           x="95.77951"
           sodipodi:role="line" /><tspan
           id="tspan2180"
           style="font-style:normal;font-variant:normal;font-weight:normal;font-stretch:normal;font-family:slave;-inkscape-font-specification:slave;text-align:center;text-anchor:middle;stroke-width:0.26458332"
           y="257.52866"
           x="95.77951"
           sodipodi:role="line">Und ja ich tendiere zu Suizidalität gefolgt von</tspan><tspan
           id="tspan2182"
           style="font-style:normal;font-variant:normal;font-weight:normal;font-stretch:normal;font-family:slave;-inkscape-font-specification:slave;text-align:center;text-anchor:middle;stroke-width:0.26458332"
           y="262.08032"
           x="95.77951"
           sodipodi:role="line">Angeberei, oder allenfalls ist es anders rum.</tspan></text>
      <path
         sodipodi:nodetypes="cc"
         inkscape:connector-curvature="0"
         id="path6868-4-8-6-3"
         d="m 29.322896,8.1235418 c 0.145591,1.3934234 0.03287,2.8373342 0.03287,4.1720992"
         style="fill:none;stroke:#ff00ff;stroke-width:0.38162848;stroke-linecap:butt;stroke-linejoin:miter;stroke-miterlimit:4;stroke-dasharray:none;stroke-opacity:1" />
      <path
         inkscape:connector-curvature="0"
         id="path16566-5"
         d="m 29.201781,9.9245545 1.583549,0.063342"
         style="fill:none;stroke:#ff00ff;stroke-width:0.38162848;stroke-linecap:butt;stroke-linejoin:miter;stroke-miterlimit:4;stroke-dasharray:none;stroke-opacity:1" />
      <path
         inkscape:connector-curvature="0"
         id="path16566-4"
         d="m 28.006979,8.0819988 4.071358,0.156516"
         style="fill:none;stroke:#ff00ff;stroke-width:0.44639775;stroke-linecap:butt;stroke-linejoin:miter;stroke-miterlimit:4;stroke-dasharray:none;stroke-opacity:1" />
      <path
         sodipodi:nodetypes="cc"
         inkscape:connector-curvature="0"
         id="path6868-4-8-6-3-4"
         d="m 32.502119,8.1643118 c 0.145591,1.3934236 0.03287,2.8373342 0.03287,4.1720992"
         style="fill:none;stroke:#ff00ff;stroke-width:0.38162848;stroke-linecap:butt;stroke-linejoin:miter;stroke-miterlimit:4;stroke-dasharray:none;stroke-opacity:1" />
      <path
         sodipodi:nodetypes="csc"
         inkscape:connector-curvature="0"
         id="path6866-4-3-7-3-2-2-5-1-9-2"
         d="m 35.648265,10.337238 c 0.509421,1.768511 -1.521554,1.778133 -1.778614,0.763087 -0.325286,-1.284447 1.468745,-1.8478212 1.809096,-0.762281"
         style="fill:none;stroke:#0000ff;stroke-width:0.38162848;stroke-linecap:butt;stroke-linejoin:miter;stroke-miterlimit:4;stroke-dasharray:none;stroke-opacity:1" />
      <g
         style="stroke:#ff0000;stroke-width:1.60000002;stroke-miterlimit:4;stroke-dasharray:none;stroke-opacity:1"
         id="g14997-3"
         transform="matrix(0.23851781,0,0,-0.23851781,-46.716791,93.49779)">
        <path
           style="fill:none;stroke:#ff0000;stroke-width:1.60000002;stroke-linecap:butt;stroke-linejoin:miter;stroke-miterlimit:4;stroke-dasharray:none;stroke-opacity:1"
           d="m 349.66598,350.10418 c 8.25168,-4.9954 10.25471,9.38853 0.0252,6.35697"
           id="path6874-2-3-5-5-0-4-6-2-7-6"
           inkscape:connector-curvature="0"
           sodipodi:nodetypes="cc" />
        <path
           style="fill:none;stroke:#ff0000;stroke-width:1.60000002;stroke-linecap:butt;stroke-linejoin:miter;stroke-miterlimit:4;stroke-dasharray:none;stroke-opacity:1"
           d="m 349.26877,340.43383 c 0.52513,5.03353 0.0988,11.81635 0.28835,16.03133"
           id="path6872-3-1-1-6-0-2-0-0-6-91"
           inkscape:connector-curvature="0"
           sodipodi:nodetypes="cc" />
      </g>
      <g
         style="stroke:#ff00ff;stroke-width:1.60000002;stroke-miterlimit:4;stroke-dasharray:none;stroke-opacity:1"
         id="g14997-51"
         transform="matrix(0.23851781,0,0,-0.23851781,-44.56316,95.271371)">
        <path
           style="fill:none;stroke:#ff00ff;stroke-width:1.60000002;stroke-linecap:butt;stroke-linejoin:miter;stroke-miterlimit:4;stroke-dasharray:none;stroke-opacity:1"
           d="m 349.66598,350.10418 c 8.25168,-4.9954 10.25471,9.38853 0.0252,6.35697"
           id="path6874-2-3-5-5-0-4-6-2-7-66"
           inkscape:connector-curvature="0"
           sodipodi:nodetypes="cc" />
        <path
           style="fill:none;stroke:#ff00ff;stroke-width:1.60000002;stroke-linecap:butt;stroke-linejoin:miter;stroke-miterlimit:4;stroke-dasharray:none;stroke-opacity:1"
           d="m 349.26877,340.43383 c 0.52513,5.03353 0.0988,11.81635 0.28835,16.03133"
           id="path6872-3-1-1-6-0-2-0-0-6-7"
           inkscape:connector-curvature="0"
           sodipodi:nodetypes="cc" />
      </g>
      <path
         sodipodi:nodetypes="cssssc"
         inkscape:connector-curvature="0"
         id="path16347-1"
         d="m 41.072238,9.0573318 c -0.06625,0.109969 -0.582174,1.6998332 0.335905,1.9259482 0.812227,0.200047 0.869397,-0.964292 1.053516,-1.6572092 0.02536,-0.09543 0,2.6810542 0,2.9561052 0,2.014653 -0.326941,3.619248 -1.450493,3.359212 -2.147066,-0.496919 -1.977032,-2.73216 -0.626005,-2.73216"
         style="fill:none;stroke:#ffa84c;stroke-width:0.38162848;stroke-linecap:butt;stroke-linejoin:miter;stroke-miterlimit:4;stroke-dasharray:none;stroke-opacity:1" />
      <path
         sodipodi:nodetypes="csc"
         inkscape:connector-curvature="0"
         id="path6946-8"
         d="m 42.550026,18.009307 c 0.598633,-1.29956 0.902461,-1.649258 1.479502,-2.529063 1.318101,-2.009691 1.145919,0.61824 1.698016,2.493965"
         style="fill:none;stroke:#000000;stroke-width:0.33395261;stroke-linecap:butt;stroke-linejoin:miter;stroke-miterlimit:4;stroke-dasharray:none;stroke-opacity:1" />
      <path
         sodipodi:nodetypes="cc"
         inkscape:connector-curvature="0"
         id="path6948-2"
         d="m 42.786116,16.073532 c 0.868091,-0.224009 2.260668,-0.552139 3.492118,-0.07646"
         style="fill:none;stroke:#000000;stroke-width:0.33395261;stroke-linecap:butt;stroke-linejoin:miter;stroke-miterlimit:4;stroke-dasharray:none;stroke-opacity:1" />
      <path
         sodipodi:nodetypes="cc"
         inkscape:connector-curvature="0"
         id="path6868-4-2-3-2-6"
         d="m 52.169302,15.867026 c 0.127405,0.64053 0.02878,1.304266 0.02878,1.917831"
         style="fill:none;stroke:#ff00ff;stroke-width:0.33395261;stroke-linecap:butt;stroke-linejoin:miter;stroke-miterlimit:4;stroke-dasharray:none;stroke-opacity:1" />
      <path
         sodipodi:nodetypes="cc"
         inkscape:connector-curvature="0"
         id="path6870-3-9-3-3-4"
         d="m 52.237587,15.201435 c -1.692487,-1.829288 1.878418,-1.504786 0,0 z"
         style="fill:none;stroke:#ff0000;stroke-width:0.33395261;stroke-linecap:butt;stroke-linejoin:miter;stroke-miterlimit:4;stroke-dasharray:none;stroke-opacity:1" />
      <path
         sodipodi:nodetypes="cc"
         inkscape:connector-curvature="0"
         id="path6872-3-1-1-6-0-8-72-3"
         d="m 53.461772,14.203679 c 0.07968,1.22545 -0.362588,4.05911 0.769363,3.365409"
         style="fill:none;stroke:#00ff00;stroke-width:0.33395261;stroke-linecap:butt;stroke-linejoin:miter;stroke-miterlimit:4;stroke-dasharray:none;stroke-opacity:1" />
      <path
         sodipodi:nodetypes="cssc"
         inkscape:connector-curvature="0"
         id="path6908-3-0-9-8"
         d="m 54.378072,16.169134 c 1.39718,-0.995029 1.974074,1.302267 0.53675,1.451782 -0.572166,0.05952 -0.712824,-0.96906 -0.244377,-1.049588 1.003675,-0.172531 1.279866,1.885499 1.139025,0.65371"
         style="fill:none;stroke:#ff0000;stroke-width:0.33395261;stroke-linecap:butt;stroke-linejoin:miter;stroke-miterlimit:4;stroke-dasharray:none;stroke-opacity:1" />
      <path
         sodipodi:nodetypes="cssc"
         inkscape:connector-curvature="0"
         id="path6916-9-9-8-8-8-1-8-9-3-6-5"
         d="m 57.905969,16.591586 c 0.168199,-0.439131 -0.337798,-0.859091 -0.70426,-0.554378 -1.240108,1.031121 0.457308,0.466484 0.685498,1.182568 0.210172,0.659521 -0.987936,0.641957 -1.281148,0.101185"
         style="fill:none;stroke:#0000ff;stroke-width:0.33395261;stroke-linecap:butt;stroke-linejoin:miter;stroke-miterlimit:4;stroke-dasharray:none;stroke-opacity:1" />
      <g
         style="stroke:#ff00ff;stroke-width:1.47362292;stroke-miterlimit:4;stroke-dasharray:none;stroke-opacity:1"
         transform="matrix(-0.19833414,0,0,0.14902954,96.043514,-59.271256)"
         id="g4706-0-7">
        <path
           style="fill:none;stroke:#ff00ff;stroke-width:1.47362292;stroke-linecap:butt;stroke-linejoin:miter;stroke-miterlimit:4;stroke-dasharray:none;stroke-opacity:1"
           d="m 227.09605,516.0652 c 1.18143,-3.0553 0.22232,-7.1724 0.64873,-9.73085"
           id="path6872-5-4-2"
           inkscape:connector-curvature="0" />
        <path
           sodipodi:nodetypes="cc"
           style="fill:none;stroke:#ff00ff;stroke-width:1.47362292;stroke-linecap:butt;stroke-linejoin:miter;stroke-miterlimit:4;stroke-dasharray:none;stroke-opacity:1"
           d="m 227.14839,514.26552 c 10.07665,4.98012 8.72851,-1.87084 7.65917,-8.28691"
           id="path6874-4-1-0"
           inkscape:connector-curvature="0" />
      </g>
      <g
         style="stroke:#ffff00;stroke-width:1.47362292;stroke-miterlimit:4;stroke-dasharray:none;stroke-opacity:1"
         id="g7073-8-7"
         transform="matrix(-0.19833414,0,0,0.14902954,96.043514,-59.271256)">
        <path
           inkscape:connector-curvature="0"
           id="path7075-62-7"
           d="m 227.09605,516.0652 c 1.18143,-3.0553 0.22232,-7.1724 0.64873,-9.73085"
           style="fill:none;stroke:#ffff00;stroke-width:1.47362292;stroke-linecap:butt;stroke-linejoin:miter;stroke-miterlimit:4;stroke-dasharray:none;stroke-opacity:1" />
        <path
           inkscape:connector-curvature="0"
           id="path7077-0-6"
           d="m 227.14839,514.26552 c 10.07665,4.98012 8.72851,-1.87084 7.65917,-8.28691"
           style="fill:none;stroke:#ffff00;stroke-width:1.47362292;stroke-linecap:butt;stroke-linejoin:miter;stroke-miterlimit:4;stroke-dasharray:none;stroke-opacity:1"
           sodipodi:nodetypes="cc" />
      </g>
      <g
         style="stroke:#ffa84c;stroke-width:1.31772006;stroke-miterlimit:4;stroke-dasharray:none;stroke-opacity:1"
         id="g14997-23"
         transform="matrix(-0.25343215,0,0,-0.25343215,137.1199,106.50671)">
        <path
           style="fill:none;stroke:#ffa84c;stroke-width:1.31772006;stroke-linecap:butt;stroke-linejoin:miter;stroke-miterlimit:4;stroke-dasharray:none;stroke-opacity:1"
           d="m 349.66598,350.10418 c 8.25168,-4.9954 10.25471,9.38853 0.0252,6.35697"
           id="path6874-2-3-5-5-0-4-6-2-7-9"
           inkscape:connector-curvature="0"
           sodipodi:nodetypes="cc" />
        <path
           style="fill:none;stroke:#ffa84c;stroke-width:1.31772006;stroke-linecap:butt;stroke-linejoin:miter;stroke-miterlimit:4;stroke-dasharray:none;stroke-opacity:1"
           d="m 349.26877,340.43383 c 0.52513,5.03353 0.0988,11.81635 0.28835,16.03133"
           id="path6872-3-1-1-6-0-2-0-0-6-94"
           inkscape:connector-curvature="0"
           sodipodi:nodetypes="cc" />
      </g>
      <g
         transform="translate(40.68,-1.8)"
         id="g137">
        <path
           style="fill:none;stroke:#000000;stroke-width:0.26458332px;stroke-linecap:butt;stroke-linejoin:miter;stroke-opacity:1"
           d="m 107.72321,277.7281 c 1.08116,-0.97584 3.00077,-1.16052 3.9113,-0.59414 2.20653,1.37253 1.06643,6.41712 -3.9935,9.07215"
           id="path2133"
           inkscape:connector-curvature="0"
           sodipodi:nodetypes="csc" />
        <path
           style="fill:none;stroke:#000000;stroke-width:0.26458332px;stroke-linecap:butt;stroke-linejoin:miter;stroke-opacity:1"
           d="m 107.72321,277.7281 c -1.08115,-0.97584 -3.00076,-1.16052 -3.91129,-0.59414 -2.20653,1.37253 -1.06643,6.41712 3.9935,9.07215"
           id="path2133-3"
           inkscape:connector-curvature="0"
           sodipodi:nodetypes="csc" />
      </g>
      <path
         sodipodi:nodetypes="cc"
         inkscape:connector-curvature="0"
         id="path6874-2-3-5-0-1-5"
         d="m 44.803301,69.832302 c 1.588676,-1.232032 3.074097,-0.07134 2.422832,2.539832"
         style="fill:none;stroke:#000000;stroke-width:0.43374291;stroke-linecap:butt;stroke-linejoin:miter;stroke-miterlimit:4;stroke-dasharray:none;stroke-opacity:1" />
      <path
         inkscape:connector-curvature="0"
         id="path6872-3-1-1-9-6-4"
         d="m 44.564908,69.255072 c 0.31517,0.956947 0.05931,2.246468 0.173061,3.0478"
         style="fill:none;stroke:#000000;stroke-width:0.43374291;stroke-linecap:butt;stroke-linejoin:miter;stroke-miterlimit:4;stroke-dasharray:none;stroke-opacity:1" />
      <path
         sodipodi:nodetypes="cc"
         inkscape:connector-curvature="0"
         id="path6874-2-3-5-0-9-9-8"
         d="m 47.109796,69.88931 c 1.58868,-1.232035 3.074094,-0.07134 2.422837,2.53983"
         style="fill:none;stroke:#000000;stroke-width:0.43374291;stroke-linecap:butt;stroke-linejoin:miter;stroke-miterlimit:4;stroke-dasharray:none;stroke-opacity:1" />
      <path
         sodipodi:nodetypes="cc"
         inkscape:connector-curvature="0"
         id="path9655"
         d="m 45.497085,69.345545 c -0.02669,-0.08753 -0.396221,-1.140525 -0.396221,-1.314291"
         style="fill:none;stroke:#000000;stroke-width:0.15117559px;stroke-linecap:butt;stroke-linejoin:miter;stroke-opacity:1" />
      <path
         sodipodi:nodetypes="cc"
         inkscape:connector-curvature="0"
         id="path9657"
         d="m 49.05142,69.372269 c 0.08559,-0.04091 0.424324,-0.986566 0.448831,-1.268151"
         style="fill:none;stroke:#000000;stroke-width:0.15117559px;stroke-linecap:butt;stroke-linejoin:miter;stroke-opacity:1" />
      <path
         inkscape:connector-curvature="0"
         id="path9659"
         d="m 49.479007,68.276573 c 0.05833,0.638734 0.306837,1.60543 0.187071,2.084496"
         style="fill:none;stroke:#000000;stroke-width:0.15117559px;stroke-linecap:butt;stroke-linejoin:miter;stroke-opacity:1" />
      <path
         inkscape:connector-curvature="0"
         id="path9661"
         d="m 45.069495,67.971988 c 0.08782,0.288471 -0.07046,1.090762 -0.187071,1.694248"
         style="fill:none;stroke:#000000;stroke-width:0.17195663px;stroke-linecap:butt;stroke-linejoin:miter;stroke-opacity:1" />
      <path
         sodipodi:nodetypes="cssc"
         inkscape:connector-curvature="0"
         id="path6908-3-0"
         d="m 50.450738,70.995523 c 1.264966,-0.90087 1.787266,1.179035 0.485958,1.314402 -0.518024,0.05389 -0.645374,-0.877359 -0.221253,-0.950267 0.908699,-0.156204 1.158755,1.707076 1.031238,0.59185"
         style="fill:none;stroke:#000000;stroke-width:0.22937609;stroke-linecap:butt;stroke-linejoin:miter;stroke-miterlimit:4;stroke-dasharray:none;stroke-opacity:1" />
      <path
         sodipodi:nodetypes="csszc"
         inkscape:connector-curvature="0"
         id="path5833-9"
         d="m 50.820606,70.108241 c -0.06334,-0.0011 -0.20147,0.01729 -0.215487,0.108514 -0.01659,0.107994 0.01092,0.294592 0.207021,0.253194 0.109495,-0.02311 0.140794,-0.06739 0.140062,-0.16777 -7.43e-4,-0.100381 -0.06613,-0.200476 -0.131596,-0.193938 z"
         style="fill:none;stroke:#000000;stroke-width:0.22937609;stroke-linecap:butt;stroke-linejoin:miter;stroke-miterlimit:4;stroke-dasharray:none;stroke-opacity:1" />
      <path
         sodipodi:nodetypes="csszc"
         inkscape:connector-curvature="0"
         id="path5833-1-3"
         d="m 51.373701,70.116837 c -0.06334,-0.0011 -0.20147,0.01727 -0.215486,0.108512 -0.01659,0.107997 0.01093,0.294593 0.20702,0.253197 0.109495,-0.02312 0.140796,-0.06739 0.140063,-0.167771 -7.43e-4,-0.100381 -0.06613,-0.200476 -0.131597,-0.193938 z"
         style="fill:none;stroke:#000000;stroke-width:0.22937609;stroke-linecap:butt;stroke-linejoin:miter;stroke-miterlimit:4;stroke-dasharray:none;stroke-opacity:1" />
      <path
         sodipodi:nodetypes="cc"
         inkscape:connector-curvature="0"
         id="path6874-2-3-5-8-7"
         d="m 52.290705,70.943836 c 0.840142,-0.651535 1.625673,-0.03773 1.281267,1.343139"
         style="fill:none;stroke:#000000;stroke-width:0.22937609;stroke-linecap:butt;stroke-linejoin:miter;stroke-miterlimit:4;stroke-dasharray:none;stroke-opacity:1" />
      <path
         inkscape:connector-curvature="0"
         id="path6872-3-1-1-4-1"
         d="m 52.164637,70.63858 c 0.166671,0.506062 0.03136,1.187999 0.09152,1.611767"
         style="fill:none;stroke:#000000;stroke-width:0.22937609;stroke-linecap:butt;stroke-linejoin:miter;stroke-miterlimit:4;stroke-dasharray:none;stroke-opacity:1" />
      <path
         sodipodi:nodetypes="cc"
         inkscape:connector-curvature="0"
         id="path6874-2-3-5-8-70"
         d="m 54.215525,71.084677 c 0.840141,-0.651535 1.625672,-0.03773 1.281266,1.343139"
         style="fill:none;stroke:#000000;stroke-width:0.22937609;stroke-linecap:butt;stroke-linejoin:miter;stroke-miterlimit:4;stroke-dasharray:none;stroke-opacity:1" />
      <path
         inkscape:connector-curvature="0"
         id="path6872-3-1-1-4-6"
         d="m 54.089455,70.779421 c 0.166671,0.506062 0.03136,1.187999 0.09152,1.611766"
         style="fill:none;stroke:#000000;stroke-width:0.22937609;stroke-linecap:butt;stroke-linejoin:miter;stroke-miterlimit:4;stroke-dasharray:none;stroke-opacity:1" />
      <path
         sodipodi:nodetypes="ccsc"
         inkscape:connector-curvature="0"
         id="path6866-4-3-7-5"
         d="m 56.101427,71.266609 c 0.211457,-0.01198 1.225626,0.01735 1.821358,0.05031 0.161006,-0.97256 -1.152665,-1.05888 -1.711469,-0.211492 -0.674082,1.022203 0.965893,1.510459 1.662688,0.70613"
         style="fill:none;stroke:#000000;stroke-width:0.22937609;stroke-linecap:butt;stroke-linejoin:miter;stroke-miterlimit:4;stroke-dasharray:none;stroke-opacity:1" />
      <g
         style="stroke-width:1.70000005;stroke-miterlimit:4;stroke-dasharray:none"
         transform="matrix(0.13492711,0,0,-0.13492711,27.63635,140.35978)"
         id="g4706-4-1-0">
        <path
           style="fill:none;stroke:#000000;stroke-width:1.70000005;stroke-linecap:butt;stroke-linejoin:miter;stroke-miterlimit:4;stroke-dasharray:none;stroke-opacity:1"
           d="m 227.09605,516.0652 c 1.18143,-3.0553 0.22232,-7.1724 0.64873,-9.73085"
           id="path6872-5-9-1-1"
           inkscape:connector-curvature="0" />
        <path
           sodipodi:nodetypes="cc"
           style="fill:none;stroke:#000000;stroke-width:1.70000005;stroke-linecap:butt;stroke-linejoin:miter;stroke-miterlimit:4;stroke-dasharray:none;stroke-opacity:1"
           d="m 227.14839,514.26552 c 5.0004,3.60816 8.31692,1.83345 8.75674,-0.74114"
           id="path6874-4-4-9-06"
           inkscape:connector-curvature="0" />
      </g>
      <path
         sodipodi:nodetypes="cc"
         inkscape:connector-curvature="0"
         id="path6874-2-3-5-5-0-3-4-4"
         d="m 59.896085,70.986231 c 0.840138,-0.651536 1.625671,-0.03773 1.281266,1.343137"
         style="fill:none;stroke:#000000;stroke-width:0.22937609;stroke-linecap:butt;stroke-linejoin:miter;stroke-miterlimit:4;stroke-dasharray:none;stroke-opacity:1" />
      <path
         inkscape:connector-curvature="0"
         id="path6872-3-1-1-6-0-84-4-6"
         d="m 59.770015,68.999997 c 0.166671,1.033856 0.03137,2.427011 0.09152,3.292743"
         style="fill:none;stroke:#000000;stroke-width:0.22937609;stroke-linecap:butt;stroke-linejoin:miter;stroke-miterlimit:4;stroke-dasharray:none;stroke-opacity:1" />
      <path
         sodipodi:nodetypes="cssc"
         inkscape:connector-curvature="0"
         id="path6908-3-4-1-6"
         d="m 61.682615,70.823319 c 1.264966,-0.900871 1.787266,1.179035 0.485958,1.314402 -0.518024,0.05389 -0.645375,-0.877359 -0.221253,-0.950267 0.9087,-0.156204 1.158755,1.707076 1.031238,0.59185"
         style="fill:none;stroke:#000000;stroke-width:0.22937609;stroke-linecap:butt;stroke-linejoin:miter;stroke-miterlimit:4;stroke-dasharray:none;stroke-opacity:1" />
      <path
         sodipodi:nodetypes="cssc"
         inkscape:connector-curvature="0"
         id="path6916-9-9-8-8-8-9"
         d="m 64.519216,71.19336 c 0.341949,-0.599618 0.808898,-1.871336 -0.637624,-0.408024 -1.026517,1.038433 0.414037,0.328448 0.620635,0.97677 0.190285,0.597112 -0.894449,0.58121 -1.159913,0.09161"
         style="fill:none;stroke:#000000;stroke-width:0.45352679;stroke-linecap:butt;stroke-linejoin:miter;stroke-miterlimit:4;stroke-dasharray:none;stroke-opacity:1" />
      <path
         sodipodi:nodetypes="cssc"
         inkscape:connector-curvature="0"
         id="path6916-9-9-8-8-8-9-5"
         d="m 66.18497,71.107192 c 0.341951,-0.599618 0.8089,-1.871336 -0.637622,-0.408024 -1.026519,1.038433 0.414035,0.328448 0.620635,0.97677 0.190284,0.597111 -0.894451,0.58121 -1.159915,0.09161"
         style="fill:none;stroke:#000000;stroke-width:0.45352679;stroke-linecap:butt;stroke-linejoin:miter;stroke-miterlimit:4;stroke-dasharray:none;stroke-opacity:1" />
      <path
         inkscape:connector-curvature="0"
         id="path7028"
         d="m 39.278478,63.888463 c 0.08804,1.153634 -1.012302,2.893154 0,3.790008"
         style="fill:none;stroke:#000000;stroke-width:0.58278877;stroke-linecap:butt;stroke-linejoin:miter;stroke-miterlimit:4;stroke-dasharray:none;stroke-opacity:1" />
      <path
         sodipodi:nodetypes="cc"
         inkscape:connector-curvature="0"
         id="path8697"
         d="M 37.069286,66.135643 C 38.05227,63.4769 40.397358,63.565929 41.483242,65.639857"
         style="fill:none;stroke:#000000;stroke-width:0.34878042px;stroke-linecap:butt;stroke-linejoin:miter;stroke-opacity:1" />
      <path
         sodipodi:nodetypes="csszc"
         inkscape:connector-curvature="0"
         id="path5833-18"
         d="m 37.817121,63.31978 c -0.0711,-0.0013 -0.226156,0.01941 -0.241891,0.12181 -0.01863,0.121227 0.01226,0.330688 0.232388,0.284218 0.122911,-0.02594 0.158045,-0.07565 0.157224,-0.188327 -8.34e-4,-0.11268 -0.07423,-0.22504 -0.147721,-0.217701 z"
         style="fill:none;stroke:#000000;stroke-width:0.25748119;stroke-linecap:butt;stroke-linejoin:miter;stroke-miterlimit:4;stroke-dasharray:none;stroke-opacity:1" />
      <path
         sodipodi:nodetypes="csszc"
         inkscape:connector-curvature="0"
         id="path5833-1-0"
         d="m 40.834133,63.287391 c -0.0711,-0.0013 -0.226155,0.01939 -0.241888,0.121808 -0.01863,0.121228 0.01226,0.330688 0.232385,0.28422 0.122911,-0.02595 0.158047,-0.07565 0.157224,-0.188327 -8.34e-4,-0.11268 -0.07423,-0.22504 -0.147721,-0.217701 z"
         style="fill:none;stroke:#000000;stroke-width:0.25748119;stroke-linecap:butt;stroke-linejoin:miter;stroke-miterlimit:4;stroke-dasharray:none;stroke-opacity:1" />
      <text
         id="text16892"
         y="11.559751"
         x="80.577538"
         style="font-style:normal;font-weight:normal;font-size:1.81589425px;line-height:0%;font-family:sans-serif;letter-spacing:0px;word-spacing:0px;fill:#000000;fill-opacity:1;stroke:none;stroke-width:0.15132453"
         xml:space="preserve"><tspan
           style="font-size:2.51565838px;line-height:1.25;font-family:sans-serif;stroke-width:0.15132453"
           y="11.559751"
           x="80.577538"
           id="tspan16894"
           sodipodi:role="line">™</tspan></text>
    </g>
  </g>
</svg>
